<?xml version="1.0" encoding="UTF-8" standalone="no"?>
<svg width="21px" height="28px" viewBox="0 0 21 28" version="1.1" xmlns="http://www.w3.org/2000/svg" xmlns:xlink="http://www.w3.org/1999/xlink">
    <title>Location</title>
    <g id="Page-1" stroke="none" stroke-width="1" fill="none" fill-rule="evenodd">
        <g id="mobile-menu-copy" transform="translate(-354.000000, -12.000000)">
            <g id="Page-1-Copy" transform="translate(354.000000, 12.000000)">
                <path d="M10.2792558,13.4966386 C8.61195349,13.4966386 7.26013953,12.1369193 7.26013953,10.4598667 C7.26013953,8.78281404 8.61195349,7.42309474 10.2792558,7.42309474 C11.9465581,7.42309474 13.2983721,8.78281404 13.2983721,10.4598667 C13.2983721,12.1369193 11.9465581,13.4966386 10.2792558,13.4966386 M10.2792558,0.000147368421 C4.60193023,0.000147368421 0,4.62898947 0,10.3395158 C0,16.0495509 5.84044186,23.4204281 10.2792558,27.8852 C14.4846279,23.6552351 20.5585116,16.0495509 20.5585116,10.3395158 C20.5585116,4.62898947 15.9565814,0.000147368421 10.2792558,0.000147368421" id="Fill-1" fill="currentColor"></path>
            </g>
        </g>
    </g>
</svg>